[
  {"cc":"UM", "offset":"-11:00,-11:00", "city":"Pacific/Midway"},
  {"cc":"US", "offset":"-10:00,-10:00", "city":"Pacific/Honolulu"},
  {"cc":"PF", "offset":"-09:30,-09:30", "city":"Pacific/Marquesas"},
  {"cc":"US", "offset":"-09:00,-08:00", "city":"America/Anchorage"},
  {"cc":"US", "offset":"-08:00,-07:00", "city":"America/Los_Angeles"},
  {"cc":"CA", "offset":"-08:00,-08:00", "city":"America/Vancouver"},
  {"cc":"US", "offset":"-07:00,-07:00", "city":"America/Phoenix"},
  {"cc":"US", "offset":"-06:00,-05:00", "city":"America/Chicago"},
  {"cc":"MX", "offset":"-06:00,-05:00", "city":"America/Mexico_City"},
  {"cc":"US", "offset":"-05:00,-04:00", "city":"America/New_York"},
  {"cc":"CA", "offset":"-05:00,-05:00", "city":"America/Toronto"},
  {"cc":"VE", "offset":"-04:00,-04:00", "city":"America/Caracas"},
  {"cc":"BO", "offset":"-04:00,-04:00", "city":"America/La_Paz"},
  {"cc":"CL", "offset":"-04:00,-03:00", "city":"America/Santiago"},
  {"cc":"CA", "offset":"-03:30,-02:30", "city":"America/St_Johns"},
  {"cc":"BR", "offset":"-03:00,-02:00", "city":"America/Belem"},
  {"cc":"BR", "offset":"-02:00,-02:00", "city":"America/Noronha"},
  {"cc":"AR", "offset":"-03:00,-03:00", "city":"America/Buenos_Aires"},
  {"cc":"PT", "offset":"-01:00,+00:00", "city":"Atlantic/Azores"},
  {"cc":"CV", "offset":"-01:00,-01:00", "city":"Atlantic/Cape_Verde"},
  {"cc":"GH", "offset":"+00:00,+00:00", "city":"Africa/Accra"},
  {"cc":"MA", "offset":"+00:00,+01:00", "city":"Africa/Casablanca"},
  {"cc":"GB", "offset":"+00:00,+01:00", "city":"Europe/London"},
  {"cc":"DE", "offset":"+01:00,+02:00", "city":"Europe/Berlin"},
  {"cc":"NG", "offset":"+01:00,+02:00", "city":"Africa/Lagos"},
  {"cc":"ES", "offset":"+01:00,+02:00", "city":"Europe/Madrid"},
  {"cc":"FR", "offset":"+01:00,+02:00", "city":"Europe/Paris"},
  {"cc":"IT", "offset":"+01:00,+02:00", "city":"Europe/Rome"},
  {"cc":"PL", "offset":"+01:00,+02:00", "city":"Europe/Warsaw"},
  {"cc":"JO", "offset":"+02:00,+03:00", "city":"Asia/Amman"},
  {"cc":"GR", "offset":"+02:00,+03:00", "city":"Europe/Athens"},
  {"cc":"RO", "offset":"+02:00,+03:00", "city":"Europe/Bucharest"},
  {"cc":"EG", "offset":"+02:00,+02:00", "city":"Africa/Cairo"},
  {"cc":"FI", "offset":"+02:00,+03:00", "city":"Europe/Helsinki"},
  {"cc":"IL", "offset":"+02:00,+02:00", "city":"Asia/Jerusalem"},
  {"cc":"UA", "offset":"+02:00,+03:00", "city":"Europe/Kiev"},
  {"cc":"ZA", "offset":"+02:00,+02:00", "city":"Africa/Johannesburg"},
  {"cc":"RU", "offset":"+02:00,+02:00", "city":"Europe/Kaliningrad"},
  {"cc":"TR", "offset":"+03:00,+03:00", "city":"Europe/Istanbul"},
  {"cc":"IQ", "offset":"+03:00,+03:00", "city":"Asia/Baghdad"},
  {"cc":"QA", "offset":"+03:00,+03:00", "city":"Asia/Qatar"},
  {"cc":"UG", "offset":"+03:00,+03:00", "city":"Africa/Kampala"},
  {"cc":"KW", "offset":"+03:00,+03:00", "city":"Asia/Kuwait"},
  {"cc":"KE", "offset":"+03:00,+03:00", "city":"Africa/Nairobi"},
  {"cc":"SA", "offset":"+03:00,+03:00", "city":"Asia/Riyadh"},
  {"cc":"YE", "offset":"+03:00,+03:00", "city":"Asia/Aden"},
  {"cc":"IR", "offset":"+03:30,+03:30", "city":"Asia/Tehran"},
  {"cc":"AE", "offset":"+04:00,+04:00", "city":"Asia/Dubai"},
  {"cc":"RU", "offset":"+03:00,+04:00", "city":"Europe/Moscow"},
  {"cc":"OM", "offset":"+04:00,+04:00", "city":"Asia/Muscat"},
  {"cc":"AF", "offset":"+04:30,+04:30", "city":"Asia/Kabul"},
  {"cc":"UZ", "offset":"+05:00,+05:00", "city":"Asia/Tashkent"},
  {"cc":"PK", "offset":"+05:00,+05:00", "city":"Asia/Karachi"},
  {"cc":"RU", "offset":"+05:00,+05:00", "city":"Asia/Yekaterinburg"},
  {"cc":"IN", "offset":"+05:30,+05:30", "city":"Asia/Kolkata"},
  {"cc":"NP", "offset":"+05:45,+05:45", "city":"Asia/Kathmandu"},
  {"cc":"KZ", "offset":"+06:00,+06:00", "city":"Asia/Almaty"},
  {"cc":"BD", "offset":"+06:00,+06:00", "city":"Asia/Dhaka"},
  {"cc":"KG", "offset":"+06:00,+06:00", "city":"Asia/Bishkek"},
  {"cc":"MM", "offset":"+06:30,+06:30", "city":"Asia/Rangoon"},
  {"cc":"RU", "offset":"+07:00,+07:00", "city":"Asia/Krasnoyarsk"},
  {"cc":"TH", "offset":"+07:00,+07:00", "city":"Asia/Bangkok"},
  {"cc":"VN", "offset":"+07:00,+07:00", "city":"Asia/Ho_Chi_Minh"},
  {"cc":"ID", "offset":"+07:00,+07:00", "city":"Asia/Jakarta"},
  {"cc":"KH", "offset":"+07:00,+07:00", "city":"Asia/Phnom_Penh"},
  {"cc":"CN", "offset":"+08:00,+08:00", "city":"Asia/Chongqing"},
  {"cc":"HK", "offset":"+08:00,+08:00", "city":"Asia/Hong_Kong"},
  {"cc":"MY", "offset":"+08:00,+08:00", "city":"Asia/Kuala_Lumpur"},
  {"cc":"PH", "offset":"+08:00,+08:00", "city":"Asia/Manila"},
  {"cc":"TW", "offset":"+08:00,+08:00", "city":"Asia/Taipei"},
  {"cc":"RU", "offset":"+08:00,+08:00", "city":"Asia/Irkutsk"},
  {"cc":"KR", "offset":"+09:00,+09:00", "city":"Asia/Seoul"},
  {"cc":"JP", "offset":"+09:00,+09:00", "city":"Asia/Tokyo"},
  {"cc":"RU", "offset":"+09:00,+09:00", "city":"Asia/Yakutsk"},
  {"cc":"AU", "offset":"+09:30,+09:30", "city":"Australia/Darwin"},
  {"cc":"AU", "offset":"+09:30,+10:30", "city":"Australia/Adelaide"},
  {"cc":"AU", "offset":"+10:00,+10:00", "city":"Australia/Brisbane"},
  {"cc":"RU", "offset":"+10:00,+10:00", "city":"Asia/Vladivostok"},
  {"cc":"AU", "offset":"+10:00,+11:00", "city":"Australia/Sydney"},
  {"cc":"AU", "offset":"+10:30,+10:30", "city":"Australia/Lord_Howe"},
  {"cc":"NF", "offset":"+11:00,+11:00", "city":"Pacific/Norfolk"},
  {"cc":"RU", "offset":"+11:00,+11:00", "city":"Asia/Magadan"},
  {"cc":"NZ", "offset":"+12:00,+13:00", "city":"Pacific/Auckland"},
  {"cc":"FJ", "offset":"+12:00,+13:00", "city":"Pacific/Fiji"},
  {"cc":"WS", "offset":"+13:00,+13:00", "city":"Pacific/Apia"}
]
